<svg width="27" height="27" viewBox="0 0 27 27" fill="none" xmlns="http://www.w3.org/2000/svg">
<circle cx="13.5" cy="13.5" r="13.5" fill="#CF3339"/>
<rect x="6.42969" y="19.864" width="19" height="1" transform="rotate(-45 6.42969 19.864)" fill="white"/>
<rect x="19.8643" y="20.571" width="19" height="1" transform="rotate(-135 19.8643 20.571)" fill="white"/>
</svg>
