<svg width="197" height="30" viewBox="0 0 197 30" fill="none" xmlns="http://www.w3.org/2000/svg">
<g clip-path="url(#clip0)">
<path fill-rule="evenodd" clip-rule="evenodd" d="M173.928 10.4081C174.465 10.4081 174.912 10.3316 175.358 10.3316C177.235 10.3316 178.487 10.5612 177.95 12.3214C177.325 14.3877 175.09 14.9234 173.124 14.9234H172.498L173.928 10.4081ZM169.728 17.2194C169.281 18.75 168.655 20.7398 167.493 22.1173C169.013 22.1173 170.532 22.1938 172.051 22.1938C175.18 22.1938 178.129 21.2755 179.112 18.2908C179.738 16.1479 178.129 15.4592 176.252 15.0765C178.04 14.5408 179.827 13.699 180.364 12.0153C180.9 10.3316 179.47 9.71936 177.682 9.71936C175.716 9.71936 173.571 9.87242 171.605 9.87242C171.962 10.5612 171.605 11.5561 171.336 12.3979L169.728 17.2194ZM172.32 15.6122H172.766C175.358 15.6122 177.503 15.9183 176.699 18.5969C176.073 20.6632 174.465 21.4285 172.141 21.4285C170.621 21.4285 170.8 20.8928 171.515 18.6734L172.32 15.6122Z" fill="#919195"/>
<path fill-rule="evenodd" clip-rule="evenodd" d="M72.8421 16.2246C72.0377 18.9797 69.8032 21.5817 66.4963 21.5817C62.7424 21.5817 62.7424 18.2144 63.6362 15.6888C64.4406 12.9337 66.675 10.3317 69.982 10.3317C73.6465 10.2552 73.5571 13.6225 72.8421 16.2246ZM75.434 15.6888C76.5066 12.245 75.2553 9.48987 70.4289 9.48987C65.6919 9.48987 62.2061 12.5511 61.0442 16.2246C59.9717 19.6684 61.223 22.4235 66.0494 22.4235C70.7864 22.4235 74.2721 19.3623 75.434 15.6888Z" fill="#919195"/>
<path fill-rule="evenodd" clip-rule="evenodd" d="M94.6501 9.71935C93.8457 10.4847 93.5776 11.4795 93.3094 12.4744C92.5944 14.7704 91.7006 17.2193 91.3431 19.5153C91.1643 20.4336 90.9856 21.2755 91.2537 22.0408H87.8574C88.5724 21.0459 89.0193 19.5918 89.3768 18.5204L91.3431 12.0918C91.3431 11.9387 91.4325 11.6326 91.3431 11.6326C91.1643 11.6326 91.075 11.7857 90.8962 11.9387L82.5841 22.1938L81.154 12.704C81.0647 12.1683 81.0647 11.6326 80.7965 11.6326C80.6178 11.6326 80.5284 12.0153 80.3496 12.2449L78.3833 18.5204C77.9364 20.051 77.5789 21.2755 77.847 21.9642H75.1657L75.4338 21.6581C76.5958 20.6632 77.6683 17.602 78.2939 15.4591L79.8134 10.6377C79.9921 10.102 79.9921 9.79588 79.5452 9.56628H82.4053C82.6734 9.56628 83.031 9.56628 83.031 9.87241L83.8354 18.3673C83.8354 18.6734 83.8354 18.9795 84.0141 18.9795C84.1929 18.9795 84.3716 18.8265 84.5504 18.5204L90.9856 10.4847C91.3431 10.102 91.6112 9.64282 92.1475 9.64282H94.6501" fill="#919195"/>
<path fill-rule="evenodd" clip-rule="evenodd" d="M106.627 16.2246C105.822 18.9797 103.588 21.5817 100.281 21.5817C96.5271 21.5817 96.6165 18.2144 97.4209 15.6888C98.2253 12.9337 100.46 10.3317 103.767 10.3317C107.431 10.2552 107.431 13.6225 106.627 16.2246ZM109.219 15.6888C110.291 12.245 109.04 9.48987 104.214 9.48987C99.4766 9.48987 95.9909 12.5511 94.829 16.2246C93.7564 19.6684 95.0077 22.4235 99.8341 22.4235C104.571 22.4235 108.057 19.3623 109.219 15.6888Z" fill="#919195"/>
<path fill-rule="evenodd" clip-rule="evenodd" d="M127.541 21.352H130.223C131.653 21.352 133.172 21.0459 134.513 20.2806L133.53 22.0408C132.904 22.1173 132.1 22.1939 131.295 22.1939H124.681C125.396 21.5051 125.754 20.5102 126.022 19.6684L128.256 12.3979C128.524 11.4796 128.882 10.4847 128.524 9.87244H136.479L136.122 11.403C135.496 10.7908 134.334 10.7143 132.993 10.7143H130.848L129.418 15.3061C131.206 15.3061 133.083 15.3061 134.87 15.153C133.708 16.301 131.116 16.301 129.686 16.301H129.061L127.541 21.352Z" fill="#919195"/>
<path fill-rule="evenodd" clip-rule="evenodd" d="M164.544 16.2246C163.739 18.9797 161.505 21.5817 158.198 21.5817C154.533 21.5817 154.533 18.2144 155.338 15.6888C156.142 12.9337 158.466 10.3317 161.684 10.3317C165.348 10.2552 165.348 13.6225 164.544 16.2246ZM167.136 15.6888C168.208 12.245 166.957 9.48987 162.13 9.48987C157.393 9.48987 153.818 12.5511 152.746 16.2246C151.673 19.6684 152.924 22.4235 157.751 22.4235C162.577 22.4235 165.974 19.3623 167.136 15.6888Z" fill="#919195"/>
<path fill-rule="evenodd" clip-rule="evenodd" d="M193.86 16.2246C193.055 18.9797 190.731 21.5817 187.514 21.5817C183.76 21.5817 183.76 18.2144 184.654 15.6888C185.458 12.9337 187.692 10.3317 190.999 10.3317C194.664 10.2552 194.664 13.6225 193.86 16.2246ZM196.452 15.6888C197.524 12.245 196.273 9.48987 191.446 9.48987C186.709 9.48987 183.224 12.5511 182.062 16.2246C180.989 19.6684 182.24 22.4235 187.067 22.4235C191.804 22.4235 195.29 19.3623 196.452 15.6888Z" fill="#919195"/>
<path fill-rule="evenodd" clip-rule="evenodd" d="M122.089 21.2755C120.927 17.7551 120.748 13.5459 120.48 9.71936H117.799L117.62 10.2551C117.173 11.7857 110.559 19.2857 108.414 21.2755H107.61L107.163 22.5765C108.236 22.1173 109.219 22.1173 110.291 22.1173H119.944C121.017 22.1173 122 22.1173 122.804 22.5765L123.251 21.2755H122.089ZM113.866 16.6836L117.799 11.7857C117.888 11.7092 118.157 11.3265 118.335 11.3265C118.514 11.3265 118.603 11.7092 118.603 11.7857C118.603 11.7857 118.782 14.6173 119.05 16.4541C119.229 17.7551 119.587 20.1275 119.765 21.2755H110.47C110.828 20.2041 112.347 18.3673 113.866 16.6836Z" fill="#919195"/>
<path fill-rule="evenodd" clip-rule="evenodd" d="M149.975 21.2755C148.813 17.7551 148.635 13.5459 148.277 9.71936H145.596L145.417 10.2551C144.97 11.7857 138.356 19.2857 136.211 21.2755H135.407L134.96 22.5765C136.032 22.1173 137.015 22.1173 138.088 22.1173H147.741C148.724 22.1173 149.796 22.1173 150.601 22.5765L151.048 21.2755H149.975ZM141.752 16.6836L145.685 11.7857C145.774 11.7092 146.043 11.3265 146.221 11.3265C146.4 11.3265 146.4 11.7092 146.489 11.7857C146.489 11.7857 146.668 14.6173 146.936 16.4541C147.115 17.7551 147.473 20.1275 147.651 21.2755H138.356C138.714 20.2041 140.233 18.3673 141.752 16.6836Z" fill="#919195"/>
<path fill-rule="evenodd" clip-rule="evenodd" d="M58.0052 21.0459C56.5752 16.5306 56.3071 11.25 55.9495 6.35205H52.4638L52.2851 7.04083C51.6594 8.95409 43.3473 18.5969 40.5766 21.0459H39.504L39.0571 22.6531C40.3084 22.1174 41.7385 22.0408 42.9898 22.0408H55.3239C56.5752 22.0408 57.9159 22.0408 58.899 22.6531L59.3459 21.0459H58.0052ZM47.548 15.1531L52.5532 8.87756C52.6426 8.7245 53.0001 8.26532 53.2682 8.26532C53.5363 8.26532 53.5363 8.64797 53.5363 8.87756C53.5363 8.87756 53.8045 12.4745 54.162 14.8469C54.3407 16.5306 54.877 19.4388 55.0558 21.0459H43.1685C43.7048 19.5918 45.6711 17.2959 47.548 15.1531Z" fill="#919195"/>
<path d="M39.5041 26.3265C39.5041 26.25 39.5041 26.1734 39.5041 26.1734C39.5041 26.0969 39.5041 26.0204 39.4148 26.0204H40.2192C40.3085 26.0204 40.3979 26.0204 40.3979 26.0969L40.7554 28.7755C40.7554 28.852 40.7554 29.0051 40.8448 29.0051C40.9342 29.0051 40.9342 28.9285 41.0236 28.852L42.9899 26.3265C43.0792 26.1734 43.1686 26.0969 43.3474 26.0969H44.1518C43.8836 26.3265 43.8836 26.6326 43.7049 26.9388C43.5261 27.7041 43.258 28.4694 43.0792 29.1581C43.0792 29.3112 42.9899 29.4643 42.9899 29.6939C42.9899 29.7704 42.9899 29.9234 43.0792 30H42.0067C42.1855 29.6939 42.3642 29.2347 42.4536 28.852L43.0792 26.7857V26.7092C42.9899 26.7092 42.9899 26.7857 42.9899 26.7857L40.3979 30.0765L39.8616 27.0153C39.8616 26.8622 39.7723 26.7092 39.7723 26.7092C39.6829 26.7092 39.6829 26.7857 39.6829 26.9388L39.0572 28.9285C38.9679 29.2347 38.8785 29.5408 38.8785 29.7704C38.8785 29.8469 38.8785 29.9234 38.8785 30H37.9847C38.3422 29.6939 38.521 29.3112 38.6104 28.7755L39.5041 26.3265Z" fill="#006A71"/>
<path d="M48.1736 28.5459C48.1736 27.1683 49.4249 25.8673 51.1231 25.8673C52.285 25.8673 52.9107 26.5561 52.9107 27.3214C52.9107 28.6989 51.6594 30 49.9612 30C48.7099 30 48.1736 29.3877 48.1736 28.5459ZM52.1956 27.3214C52.1956 26.7091 51.8381 26.1734 51.0337 26.1734C49.6931 26.1734 48.8887 27.4745 48.8887 28.6224C48.8887 29.2347 49.2462 29.7704 50.0506 29.7704C51.3912 29.7704 52.1956 28.4694 52.1956 27.3214Z" fill="#006A71"/>
<path d="M61.3122 26.7091C61.2228 26.4796 61.0441 26.1734 60.3291 26.1734C58.9884 26.1734 58.184 27.3979 58.184 28.4694C58.184 29.1581 58.6309 29.6173 59.5246 29.6173C60.1503 29.6173 60.5972 29.3877 60.8653 29.1581C60.7759 29.4642 60.2397 30 59.0778 30C58.0052 30 57.3796 29.2347 57.3796 28.3928C57.3796 26.9387 58.7202 25.8673 60.3291 25.8673C60.7759 25.8673 61.0441 25.9438 61.491 25.9438L61.3122 26.7091Z" fill="#006A71"/>
<path d="M66.4068 26.7857C66.4962 26.5561 66.4962 26.403 66.4962 26.1734C66.4962 26.0969 66.4962 26.0204 66.4962 25.9438H67.4794C67.3006 26.1734 67.1219 26.4796 67.1219 26.7857L66.8537 27.7806C66.9431 27.7806 67.1219 27.7041 67.3006 27.551L68.6413 26.4796C68.82 26.3265 68.9988 26.1734 68.9988 26.0969C68.9988 26.0204 68.9988 26.0204 68.9988 25.9438H69.8926C69.4457 26.1734 69.1775 26.3265 68.7307 26.6326L67.39 27.6275L68.3731 29.1581C68.4625 29.3877 68.7307 29.6938 68.9094 29.8469H68.1944C68.105 29.8469 68.0156 29.7704 67.9263 29.6938L66.9431 28.0102C66.9431 27.9336 66.8537 27.9336 66.8537 27.9336C66.7643 27.9336 66.7643 28.0102 66.7643 28.0867L66.4962 29.0816C66.4068 29.3112 66.4068 29.4643 66.4068 29.6938C66.4068 29.7704 66.4068 29.8469 66.4068 29.9234H65.4237C65.6024 29.6938 65.6918 29.3877 65.7812 29.0816L66.4068 26.7857Z" fill="#006A71"/>
<path d="M73.3784 28.5459C73.3784 27.1683 74.6297 25.8673 76.3279 25.8673C77.4898 25.8673 78.1154 26.5561 78.1154 27.3214C78.1154 28.6989 76.8641 30 75.1659 30C73.9147 30 73.3784 29.3877 73.3784 28.5459ZM77.311 27.3214C77.311 26.7091 76.9535 26.1734 76.1491 26.1734C74.8084 26.1734 74.004 27.4745 74.004 28.6224C74.004 29.2347 74.3615 29.7704 75.1659 29.7704C76.5066 29.7704 77.311 28.4694 77.311 27.3214Z" fill="#006A71"/>
<path d="M84.8185 27.704C85.3548 27.8571 85.7123 28.0867 85.7123 28.4694C85.7123 29.5408 84.5504 29.9234 83.5673 29.9234C83.1204 29.9234 82.5841 29.9234 82.1372 29.9234C82.4053 29.6938 82.5841 29.3112 82.6735 28.852L83.2991 26.7857C83.3885 26.5561 83.3885 26.403 83.3885 26.1734C83.3885 26.0969 83.3885 26.0204 83.3885 25.9438C84.0141 25.9438 84.5504 25.8673 85.1761 25.8673C85.623 25.8673 86.1592 26.0969 86.1592 26.4796C86.0698 27.1683 85.4442 27.4745 84.8185 27.704ZM83.2991 28.852C83.2097 29.1581 83.1204 29.3877 83.1204 29.4642C83.1204 29.6173 83.2097 29.6938 83.4779 29.6938C84.2823 29.6938 84.9973 29.3112 84.9973 28.4694C84.9973 27.9336 84.3717 27.8571 83.6566 27.8571H83.5673L83.2991 28.852ZM83.6566 27.6275H83.8354C84.461 27.6275 85.3548 27.3979 85.3548 26.5561C85.3548 26.1734 84.9973 26.1734 84.461 26.1734C84.2823 26.1734 84.1929 26.1734 84.0141 26.1734L83.6566 27.6275Z" fill="#006A71"/>
<path d="M94.4716 26.7091C94.3822 26.4796 94.2035 26.1734 93.4884 26.1734C92.1478 26.1734 91.3434 27.3979 91.3434 28.4694C91.3434 29.1581 91.7903 29.6173 92.684 29.6173C93.3097 29.6173 93.7566 29.3877 94.0247 29.1581C93.9353 29.4642 93.3991 30 92.2371 30C91.1646 30 90.539 29.2347 90.539 28.3928C90.539 26.9387 91.8796 25.8673 93.4884 25.8673C93.9353 25.8673 94.2035 25.9438 94.6504 25.9438L94.4716 26.7091Z" fill="#006A71"/>
<path d="M99.6555 26.7857C99.7449 26.5561 99.7449 26.403 99.7449 26.1734C99.7449 26.0969 99.7449 26.0204 99.7449 25.9438H100.728C100.46 26.1734 100.371 26.4796 100.371 26.7857L100.102 27.7806C100.192 27.7806 100.371 27.7041 100.549 27.551L101.89 26.4796C102.069 26.3265 102.247 26.1734 102.247 26.0969C102.247 26.0204 102.247 26.0204 102.247 25.9438H103.141C102.694 26.1734 102.426 26.3265 101.979 26.6326L100.639 27.6275L101.622 29.1581C101.711 29.3877 101.979 29.6938 102.158 29.8469H101.443C101.354 29.8469 101.264 29.7704 101.175 29.6938L100.192 28.0102C100.192 27.9336 100.102 27.9336 100.102 27.9336C100.013 27.9336 100.013 28.0102 100.013 28.0867L99.7449 29.0816C99.6555 29.3112 99.6555 29.4643 99.6555 29.6938C99.6555 29.7704 99.6555 29.8469 99.7449 29.9234H98.7617C98.9405 29.6938 99.0299 29.3877 99.1192 29.0816L99.6555 26.7857Z" fill="#006A71"/>
<path d="M107.521 28.9285C107.521 29.0051 107.521 29.0051 107.521 28.9285C107.521 29.0051 107.61 29.0051 107.521 28.9285L110.559 26.1734C110.738 26.0204 110.828 25.9438 111.096 25.9438H111.543C111.274 26.1734 111.185 26.4796 111.096 26.7857L110.381 29.0816C110.291 29.2347 110.291 29.4643 110.291 29.6173C110.291 29.6938 110.291 29.7704 110.291 29.8469H109.308C109.576 29.6173 109.666 29.3112 109.666 29.0051L110.291 26.7857V26.7092C110.291 26.7092 110.291 26.7092 110.202 26.7857L106.895 29.8469H106.359C106.627 29.6173 106.716 29.3112 106.716 29.0051L107.431 26.7092C107.521 26.4796 107.521 26.3265 107.521 26.1734C107.521 26.0969 107.521 26.0204 107.521 25.9438H108.504C108.236 26.1734 108.146 26.4796 108.057 26.7857L107.521 28.9285Z" fill="#006A71"/>
<path d="M116.28 28.9286C116.28 29.0051 116.28 29.0051 116.28 28.9286C116.28 29.0051 116.28 29.0051 116.28 28.9286L119.319 26.1735C119.497 26.0204 119.587 25.9439 119.855 25.9439H120.302C120.034 26.1735 119.944 26.4796 119.855 26.7857L119.14 29.0816C119.051 29.2347 119.051 29.4643 119.051 29.6173C119.051 29.6939 119.051 29.7704 119.051 29.8469H118.067C118.336 29.6173 118.425 29.3112 118.425 29.0051L119.051 26.7857V26.7092C119.051 26.7092 119.051 26.7092 118.961 26.7857L115.654 29.8469H115.118C115.297 29.6173 115.475 29.3112 115.475 29.0051L116.19 26.7092C116.28 26.4796 116.28 26.3265 116.28 26.1735C116.28 26.0969 116.28 26.0204 116.28 25.9439H117.263C116.995 26.1735 116.906 26.4796 116.816 26.7857L116.28 28.9286ZM117.799 24.8724C117.799 25.2551 117.978 25.4847 118.425 25.4847C118.961 25.4847 119.229 25.2551 119.408 24.8724H119.587C119.319 25.4082 119.051 25.8673 118.336 25.8673C117.621 25.8673 117.442 25.4082 117.621 24.8724H117.799Z" fill="#006A71"/>
<path d="M133.262 29.9234L132.993 28.1632H131.295C130.848 28.699 130.312 29.3112 130.223 29.6939C130.223 29.7704 130.223 29.8469 130.223 29.9234H129.329L129.508 29.7704C130.044 29.3112 132.278 26.6326 132.457 26.1734L132.547 26.0204H133.44C133.53 27.2449 133.619 28.6224 133.977 29.7704L134.066 30H133.262V29.9234ZM132.815 26.5561C132.815 26.4796 132.815 26.403 132.725 26.403C132.636 26.403 132.547 26.5561 132.547 26.5561L131.474 27.9337H132.904L132.815 26.5561Z" fill="#006A71"/>
<path d="M138.714 28.9285C138.803 29.3112 139.16 29.7704 139.876 29.7704C141.037 29.7704 141.752 28.852 141.931 28.0102H141.574C141.127 28.0102 140.322 27.9336 140.144 27.6275C140.591 27.704 141.216 27.704 142.021 27.704C142.021 27.551 142.021 27.4745 142.021 27.3214C142.021 26.7091 141.752 26.0969 140.859 26.0969C140.412 26.0969 139.697 26.3265 139.429 26.7091L139.339 26.1734C139.697 26.0969 140.322 25.8673 140.948 25.8673C142.199 25.8673 142.646 26.5561 142.646 27.3214C142.646 28.5459 141.574 30 139.786 30C138.982 30 138.714 29.8469 138.356 29.6173L138.714 28.9285Z" fill="#006A71"/>
<path d="M147.92 26.7857C148.009 26.5561 148.009 26.403 148.009 26.1734C148.009 26.0969 148.009 26.0204 148.009 25.9438C148.545 25.9438 149.081 25.8673 149.618 25.8673C150.333 25.8673 150.69 26.25 150.69 26.7091C150.69 27.551 149.886 28.1632 148.992 28.1632C148.635 28.1632 148.545 28.0867 148.366 28.0102C148.366 28.0102 148.456 28.0102 148.545 28.0102C149.171 28.0102 149.975 27.6275 149.975 26.7091C149.975 26.403 149.797 26.0969 149.26 26.0969H148.724L147.83 29.0816C147.741 29.2347 147.741 29.4643 147.741 29.6173C147.741 29.6938 147.741 29.7704 147.83 29.8469H146.847C147.115 29.6173 147.205 29.3112 147.205 29.0051L147.92 26.7857Z" fill="#006A71"/>
<path d="M154.802 28.5459C154.802 27.1683 156.053 25.8673 157.751 25.8673C158.913 25.8673 159.539 26.5561 159.539 27.3214C159.539 28.6989 158.287 30 156.589 30C155.427 30 154.802 29.3877 154.802 28.5459ZM158.824 27.3214C158.824 26.7091 158.466 26.1734 157.662 26.1734C156.321 26.1734 155.517 27.4745 155.517 28.6224C155.517 29.2347 155.874 29.7704 156.678 29.7704C158.019 29.7704 158.824 28.4694 158.824 27.3214Z" fill="#006A71"/>
<path d="M168.476 26.0204C168.208 26.25 168.119 26.5561 168.029 26.8622L167.314 29.1581C167.225 29.3112 167.225 29.5408 167.225 29.6938C167.225 29.7704 167.225 29.8469 167.225 29.9234H166.242C166.51 29.6938 166.599 29.3877 166.599 29.0816L167.404 26.1734H165.348L164.544 29.0816C164.454 29.2347 164.454 29.4643 164.454 29.6173C164.454 29.6938 164.454 29.7704 164.454 29.8469H163.561C163.829 29.6173 163.918 29.3112 163.918 29.0051L164.633 26.7092C164.722 26.4796 164.722 26.3265 164.722 26.1734C164.722 26.0969 164.722 26.0204 164.722 25.9438H168.476" fill="#006A71"/>
<path d="M172.498 28.5459C172.498 27.1683 173.75 25.8673 175.448 25.8673C176.61 25.8673 177.235 26.5561 177.235 27.3214C177.235 28.6989 175.984 30 174.286 30C173.035 30 172.498 29.3877 172.498 28.5459ZM176.52 27.3214C176.52 26.7091 176.163 26.1734 175.359 26.1734C174.018 26.1734 173.213 27.4745 173.213 28.6224C173.213 29.2347 173.571 29.7704 174.375 29.7704C175.627 29.7704 176.52 28.4694 176.52 27.3214Z" fill="#006A71"/>
<path d="M182.33 26.7857C182.419 26.5561 182.419 26.403 182.419 26.1734C182.419 26.0969 182.419 26.0204 182.419 25.9438C182.956 25.9438 183.492 25.8673 184.028 25.8673C184.743 25.8673 185.101 26.25 185.101 26.7091C185.101 27.551 184.296 28.1632 183.403 28.1632C183.045 28.1632 182.956 28.0867 182.777 28.0102C182.777 28.0102 182.866 28.0102 182.956 28.0102C183.581 28.0102 184.386 27.6275 184.386 26.7091C184.386 26.403 184.207 26.0969 183.671 26.0969H183.134L182.241 29.0816C182.241 29.2347 182.151 29.4643 182.151 29.6173C182.151 29.6938 182.151 29.7704 182.241 29.8469H181.257C181.526 29.6173 181.615 29.3112 181.615 29.0051L182.33 26.7857Z" fill="#006A71"/>
<path d="M189.927 29.9234C190.106 29.6938 190.195 29.3877 190.285 29.0816L191.089 26.25H190.016C189.838 26.25 189.659 26.25 189.48 26.403L189.748 25.9438H193.413C193.234 26.1734 192.787 26.25 192.43 26.25H191.715L190.91 29.0816C190.821 29.3112 190.821 29.4643 190.821 29.6938C190.821 29.7704 190.821 29.8469 190.821 29.9234H189.927Z" fill="#006A71"/>
<path fill-rule="evenodd" clip-rule="evenodd" d="M18.5898 6.96426H19.9305L21.5393 3.52039L18.5898 6.96426Z" fill="#006A71"/>
<path fill-rule="evenodd" clip-rule="evenodd" d="M19.6622 7.88269H17.7852L15.9977 9.94902H19.4834L19.6622 7.88269Z" fill="#006A71"/>
<path fill-rule="evenodd" clip-rule="evenodd" d="M19.5728 10.9438H15.1933L13.4057 13.0102H19.9303L19.5728 10.9438Z" fill="#006A71"/>
<path fill-rule="evenodd" clip-rule="evenodd" d="M20.1987 14.0051H12.6016L10.814 16.0715H21.2712L20.1987 14.0051Z" fill="#006A71"/>
<path fill-rule="evenodd" clip-rule="evenodd" d="M21.8967 16.9897H10.0095L8.31128 19.0561H23.7737L21.8967 16.9897Z" fill="#006A71"/>
<path fill-rule="evenodd" clip-rule="evenodd" d="M24.9354 20.051H7.50667L5.71912 22.1173H28.868L24.9354 20.051Z" fill="#006A71"/>
<path fill-rule="evenodd" clip-rule="evenodd" d="M17.5171 1.76015C26.008 1.76015 32.8901 7.65301 32.8901 14.9234C32.8901 22.1938 26.008 28.0867 17.5171 28.0867C9.02623 28.0867 2.14414 22.1938 2.14414 14.9234C2.05476 7.65301 8.93685 1.76015 17.5171 1.76015ZM17.5171 0.688721C26.7231 0.688721 34.2308 7.11729 34.2308 14.9999C34.2308 22.8826 26.7231 29.3112 17.5171 29.3112C8.31121 29.3112 0.803467 22.8826 0.803467 14.9999C0.803467 7.04076 8.22183 0.688721 17.5171 0.688721Z" fill="#006A71"/>
<path fill-rule="evenodd" clip-rule="evenodd" d="M17.5172 0.306122C26.9912 0.306122 34.6777 6.88775 34.6777 15C34.6777 23.1122 26.9912 29.6939 17.5172 29.6939C8.04312 29.6173 0.356627 23.0357 0.356627 15C0.356627 6.88775 8.04312 0.306122 17.5172 0.306122ZM17.5172 0C27.17 0 35.0352 6.73469 35.0352 15C35.0352 23.2653 27.17 30 17.5172 30C7.86437 29.9235 -0.00088501 23.2653 -0.00088501 15C-0.00088501 6.73469 7.86437 0 17.5172 0Z" fill="#006A71"/>
</g>
<defs>
<clipPath id="clip0">
<rect width="196.81" height="30" fill="white" transform="translate(-0.00088501)"/>
</clipPath>
</defs>
</svg>
